\select@language {ngerman}
\contentsline {section}{\numberline {1}SSL}{1}
\contentsline {subsection}{\numberline {1.1}The secure channel}{1}
\contentsline {subsection}{\numberline {1.2}security in the TCP/IP stack}{1}
\contentsline {subsection}{\numberline {1.3}diffrent parts of the SSL protocoll}{1}
\contentsline {subsection}{\numberline {1.4}SSL(TLS) over TCP/IP}{1}
\contentsline {subsection}{\numberline {1.5}SSL characteristics}{1}
\contentsline {subsection}{\numberline {1.6}SSL protocols}{2}
\contentsline {subsection}{\numberline {1.7}Handshake protocol}{2}
\contentsline {subsubsection}{\numberline {1.7.1}SSL protocol basic handshake features}{2}
\contentsline {subsubsection}{\numberline {1.7.2}protocol gritty details}{3}
\contentsline {subsubsection}{\numberline {1.7.3}generating Master Secret}{4}
\contentsline {subsubsection}{\numberline {1.7.4}generating key material}{4}
\contentsline {subsection}{\numberline {1.8}Record protocol}{4}
\contentsline {subsubsection}{\numberline {1.8.1}Ablauf}{4}
\contentsline {subsubsection}{\numberline {1.8.2}Format}{5}
\contentsline {subsection}{\numberline {1.9}SSL remaining protocols}{5}
\contentsline {subsection}{\numberline {1.10}TLS enhancements}{5}
\contentsline {subsection}{\numberline {1.11}Words to the wise about applied cryptography}{5}
\contentsline {subsection}{\numberline {1.12}SSL and Java applications}{6}
\contentsline {subsubsection}{\numberline {1.12.1}Java SSL software (JSSE)}{6}
\contentsline {subsubsection}{\numberline {1.12.2}X.509 certificate}{6}
\contentsline {subsubsection}{\numberline {1.12.3}Webserver verification of client's certificate}{7}
\contentsline {subsubsection}{\numberline {1.12.4}Client verification of server's certificate}{7}
\contentsline {subsubsection}{\numberline {1.12.5}Certification path}{7}
\contentsline {subsubsection}{\numberline {1.12.6}A secure Webserver in Java}{7}
\contentsline {section}{\numberline {2}Validation}{9}
\contentsline {subsection}{\numberline {2.1}Fundamental principles}{9}
\contentsline {subsection}{\numberline {2.2}Points of attack}{9}
\contentsline {subsection}{\numberline {2.3}SQL injection}{9}
\contentsline {subsubsection}{\numberline {2.3.1}login attack}{9}
\contentsline {subsubsection}{\numberline {2.3.2}some more tricks}{10}
\contentsline {subsubsection}{\numberline {2.3.3}Defenses against SQL injection}{10}
\contentsline {subsubsection}{\numberline {2.3.4}SQL statements\IeC {\textquoteright } sanitation}{10}
\contentsline {subsection}{\numberline {2.4}Cross-Site Scripting}{10}
\contentsline {subsubsection}{\numberline {2.4.1}XSS}{10}
\contentsline {subsubsection}{\numberline {2.4.2}Defenses against XSS}{11}
\contentsline {subsection}{\numberline {2.5}Regular Expressions}{12}
\contentsline {subsubsection}{\numberline {2.5.1}Cheet Sheet}{12}
\contentsline {subsubsection}{\numberline {2.5.2}Example}{13}
\contentsline {section}{\numberline {3}Robust Programming}{15}
\contentsline {subsection}{\numberline {3.1}Einleitung}{15}
\contentsline {subsection}{\numberline {3.2}Specific tools enhance robustness}{15}
\contentsline {subsection}{\numberline {3.3}Types and visibility in Java}{15}
\contentsline {subsection}{\numberline {3.4}Code inheritance breaks encapsulation}{15}
\contentsline {subsubsection}{\numberline {3.4.1}Instead inheritance use composition}{16}
\contentsline {subsubsection}{\numberline {3.4.2}Instead inheritance use Template/Hooks}{16}
\contentsline {subsection}{\numberline {3.5}Annotations}{16}
\contentsline {subsubsection}{\numberline {3.5.1}General remarks}{16}
\contentsline {subsubsection}{\numberline {3.5.2}Why are annotations so important?}{16}
\contentsline {subsubsection}{\numberline {3.5.3}Overview}{16}
\contentsline {subsection}{\numberline {3.6}exception handling}{18}
\contentsline {subsubsection}{\numberline {3.6.1}Ideal fault-tolerant software components}{18}
\contentsline {subsubsection}{\numberline {3.6.2}Requirements for exception handling}{18}
\contentsline {subsubsection}{\numberline {3.6.3}Classes of exceptions}{18}
\contentsline {subsection}{\numberline {3.7}Assertions}{18}
\contentsline {subsubsection}{\numberline {3.7.1}Decleration}{18}
\contentsline {subsubsection}{\numberline {3.7.2}enable/disable}{19}
\contentsline {section}{\numberline {4}Action Control}{20}
\contentsline {subsection}{\numberline {4.1}Goal}{20}
\contentsline {subsection}{\numberline {4.2}AC policies}{20}
\contentsline {subsubsection}{\numberline {4.2.1}Discretionary AC}{20}
\contentsline {subsubsection}{\numberline {4.2.2}Mandatory AC}{20}
\contentsline {subsection}{\numberline {4.3}Bell-LaPadula (BLP) policy model }{21}
\contentsline {subsection}{\numberline {4.4}Other policy concepts}{21}
\contentsline {subsection}{\numberline {4.5}Role-based access control (RBAC)}{21}
\contentsline {subsection}{\numberline {4.6}ACM/ACL}{21}
\contentsline {subsection}{\numberline {4.7}AC list (ACL)}{22}
\contentsline {subsection}{\numberline {4.8}Capability list}{22}
\contentsline {subsection}{\numberline {4.9}Android}{23}
\contentsline {subsubsection}{\numberline {4.9.1}Basic Components of an Application}{23}
\contentsline {subsubsection}{\numberline {4.9.2}Security steps}{23}
\contentsline {subsubsection}{\numberline {4.9.3}Android manifest file}{23}
\contentsline {section}{\numberline {5}JavaIdiocies}{25}
\contentsline {subsection}{\numberline {5.1}Java Security Model}{25}
\contentsline {subsection}{\numberline {5.2}Visibility modifiers}{25}
\contentsline {subsubsection}{\numberline {5.2.1}Purpose}{25}
\contentsline {subsubsection}{\numberline {5.2.2}Attention}{25}
\contentsline {subsection}{\numberline {5.3}Protecting packages}{25}
\contentsline {subsubsection}{\numberline {5.3.1}Sealed JAR archives}{25}
\contentsline {subsubsection}{\numberline {5.3.2}Signing JAR archives}{26}
\contentsline {subsubsection}{\numberline {5.3.3}Join packages via security policy PAP}{26}
\contentsline {subsection}{\numberline {5.4}Inner classes}{26}
\contentsline {subsection}{\numberline {5.5}Common Java Antipatterns}{26}
\contentsline {subsubsection}{\numberline {5.5.1}Assuming objects are immutable}{26}
\contentsline {subsection}{\numberline {5.6}Basing security checks on untrusted sources}{27}
\contentsline {subsection}{\numberline {5.7}False inheritance relationship}{27}
\contentsline {subsection}{\numberline {5.8}Ignoring changes to super classes}{27}
\contentsline {subsection}{\numberline {5.9}Neglecting to validate inputs}{27}
\contentsline {subsection}{\numberline {5.10}Misusing public static variables}{27}
\contentsline {subsection}{\numberline {5.11}Believing a constructor exception destroys the object}{28}
\contentsline {subsection}{\numberline {5.12}TOC2TOU - Time Of Check To Time Of Use}{28}
\contentsline {subsection}{\numberline {5.13}Twelve (very conservative) guidelines for writing safer Java}{28}
\contentsline {section}{\numberline {6}Java security overview}{29}
\contentsline {subsection}{\numberline {6.1}Java security in a nutshell}{29}
\contentsline {subsection}{\numberline {6.2}Java security model}{29}
\contentsline {subsubsection}{\numberline {6.2.1}Java policy files}{29}
\contentsline {subsubsection}{\numberline {6.2.2}protection domains}{29}
\contentsline {subsection}{\numberline {6.3}Byte code verifier}{30}
\contentsline {subsection}{\numberline {6.4}Java class loaders}{30}
\contentsline {subsubsection}{\numberline {6.4.1}Java class loaders hierarchy}{30}
\contentsline {subsubsection}{\numberline {6.4.2}The class loader security phases}{30}
